236,
236,
236,
236,
236,
236,
236,
236,
236,
236,
236,
236,
236,
236,
236,
236,
237,6.1
237,
237,6.1
237,6.1
237,
237,
237,6.1
237,
237,6.1
237,
237,6.1
237,
237,6.1
237,
237,6.1
237,6.1
237,
238,6.1
238,
238,6.1
238,
238,6.1
238,
238,6.1
238,
238,6.1
238,
239,
239,
239,
239,
239,
239,
239,
239,
239,
239,
239,
239,
239,
239,
239,
239,
239,
239,
239,
239,
240,
240,
240,
240,
240,
240,
240,
240,
240,
240,
240,
240,
240,
240,
240,
240,
240,
240,
240,
240,
240,
240,
240,
240,
241,
241,
241,
241,
241,
241,
241,
241,
241,
241,
241,
241,
241,
241,
241,
241,
241,
241,
241,
241,
241,
241,
241,
241,
241,
242,
242,
242,
242,
242,
242,
242,
242,
242,
242,
242,
242,
242,
242,
242,
242,
242,
242,
242,
242,
242,
242,
242,
243,6.1
243,
243,6.1
243,6.1
243,
243,6.1
243,
243,6.1
243,
243,6.1
243,
243,6.1
243,
244,0.91
244,0.91
244,0.91
244,0.91
244,0.91
244,
244,0.91
244,0.91
244,0.91
244,0.91
244,0.91
244,
244,0.91
244,0.91
244,0.91
244,0.91
244,0.91
244,
244,0.91
244,0.91
244,0.91
244,0.91
244,0.91
244,
245,
245,
245,
245,
245,
245,
245,
245,
245,
245,
245,
245,
245,
245,
245,
245,
245,
245,
246,0.91
246,0.91
246,0.91
246,0.91
246,0.91
246,
246,0.91
246,0.91
246,0.91
246,0.91
246,0.91
246,
246,0.91
246,0.91
246,0.91
246,0.91
246,0.91
246,
247,
247,
247,
247,
247,
247,
247,
247,
247,
247,
247,
247,
247,
247,
248,
248,
248,
248,
248,
248,
248,
248,
248,
248,
248,
248,
248,
248,
248,
248,
248,
248,
248,
248,
248,
248,
248,
248,
248,
248,
248,
248,
248,
248,
248,
248,
248,
248,
248,
248,
248,
248,
249,6.1
249,6.1
249,6.1
249,
249,6.1
249,6.1
249,6.1
249,
249,
249,6.1
249,6.1
249,6.1
249,
249,
249,6.1
249,6.1
249,6.1
249,
249,
249,6.1
249,6.1
249,6.1
249,
249,
249,6.1
249,6.1
249,6.1
249,
249,
249,6.1
249,6.1
249,6.1
249,
249,
249,6.1
249,6.1
249,6.1
249,
249,
249,6.1
249,6.1
249,6.1
249,
249,
249,6.1
249,6.1
249,6.1
249,
249,
249,6.1
249,6.1
249,6.1
249,
249,
249,6.1
249,6.1
249,6.1
249,
249,
249,6.1
249,6.1
249,6.1
249,
249,
249,6.1
249,6.1
249,6.1
249,
249,
250,
250,
250,
250,
250,
250,
250,
250,
250,
250,
250,
250,
250,
250,
250,
250,
250,
251,6.1
251,
251,
251,6.1
251,
251,6.1
251,
251,6.1
251,
251,
251,6.1
251,
251,
252,
252,
252,
252,
252,
252,
252,
252,
252,
252,
252,
252,
252,
252,
252,
252,
252,
252,
252,
252,
252,
252,
252,
252,
252,
252,
252,
252,
252,
252,
252,
252,
252,
252,
252,
252,
252,
252,
252,
252,
252,
252,
252,
252,
252,
252,
252,
252,
252,
252,
253,0.91
253,0.91
253,0.91
253,0.91
253,0.91
253,
253,0.91
253,0.91
253,0.91
253,0.91
253,0.91
253,
253,0.91
253,0.91
253,0.91
253,0.91
253,0.91
253,
253,0.91
253,0.91
253,0.91
253,0.91
253,0.91
253,
254,0.91
254,0.91
254,0.91
254,0.91
254,0.91
254,
254,0.91
254,0.91
254,0.91
254,0.91
254,
254,0.91
254,0.91
254,0.91
254,0.91
254,0.91
254,
254,0.91
254,0.91
254,0.91
254,0.91
254,0.91
254,
255,
255,
255,
255,
255,
255,
255,
255,
255,
255,
255,
255,
255,
255,
255,
255,
255,
255,
255,
256,3.05
256,
256,3.05
256,
256,3.05
256,3.05
256,
256,3.05
256,3.05
256,
256,3.05
256,3.05
256,
256,3.05
256,3.05
256,
256,3.05
256,3.05
256,
257,
257,
257,
257,
257,
257,
257,
257,
257,
257,
257,
257,
257,
257,
257,
257,
257,
257,
257,
258,
258,
258,
258,
258,
258,
258,
258,
258,
258,
258,
258,
258,
258,
258,6.1
258,
258,
259,6.1
259,6.1
259,6.1
259,
259,
259,6.1
259,6.1
259,6.1
259,
259,
259,6.1
259,6.1
259,6.1
259,
259,
259,6.1
259,6.1
259,6.1
259,6.1
259,6.1
259,
259,
259,6.1
259,6.1
259,6.1
259,
259,
259,6.1
259,6.1
259,6.1
259,6.1
259,6.1
259,6.1
259,
259,
259,6.1
259,6.1
259,6.1
259,6.1
259,
259,
260,
260,
260,
260,
260,
260,
260,
260,
260,
260,
260,
260,
260,
260,
260,
260,
260,
260,
260,
260,
260,
260,
260,
260,
260,
260,
260,
260,
260,
260,
261,
261,
261,
261,
261,
261,
261,
261,
261,
261,
261,
261,
261,
261,
261,
261,
261,
261,
261,
261,
261,
261,
261,
261,
262,6.1
262,6.1
262,6.1
262,
262,
262,6.1
262,6.1
262,6.1
262,
262,
262,6.1
262,6.1
262,6.1
262,
262,
262,6.1
262,6.1
262,6.1
262,6.1
262,6.1
262,6.1
262,
262,
262,6.1
262,6.1
262,6.1
262,
262,
262,6.1
262,6.1
262,6.1
262,
262,
262,6.1
262,6.1
262,6.1
262,
262,
262,6.1
262,6.1
262,6.1
262,6.1
262,
262,
263,6.1
263,
263,
263,
263,
263,
263,
263,
263,
263,
263,
263,
264,6.1
264,
264,
264,6.1
264,
264,
264,6.1
264,
264,
264,6.1
264,
264,
264,6.1
264,
264,
265,6.1
265,6.1
265,6.1
265,6.1
265,6.1
265,
265,
265,
265,
265,
265,
265,
265,
265,
265,
265,
266,
266,
266,
266,3.05
266,
266,3.05
266,
266,2.44
266,
266,2.44
266,
266,2.44
266,
266,2.44
266,
266,2.44
266,
266,3.05
266,
267,5.18
267,
267,5.18
267,
267,5.18
267,
267,5.18
267,
267,5.18
267,
267,5.18
267,
267,5.18
267,
268,
268,
268,
268,
268,
268,
268,
268,
268,
268,
268,
268,
268,
268,
268,
268,
268,
268,
268,
268,
268,
268,
268,
268,
269,
269,
269,
269,
269,
269,
269,
269,
269,
269,
269,
269,
269,
269,
269,
269,
269,
269,
269,
269,
269,
269,
269,
270,
270,
270,
270,2.44
270,
270,2.44
270,
270,2.44
270,
270,3.05
270,
270,3.05
270,
270,2.44
270,
270,2.44
270,
271,3.35
271,2.13
271,1.22
271,
271,2.13
271,2.13
271,2.13
271,2.13
271,2.13
271,2.13
271,
271,
271,2.13
271,
271,
271,2.13
271,
271,
271,2.13
271,
271,
271,2.13
271,2.13
271,2.13
271,
271,
271,2.13
271,2.13
271,2.13
271,
271,
271,2.13
271,2.13
271,2.13
271,
271,
271,2.13
271,2.13
271,2.13
271,
271,
271,
272,
273,
273,
273,
273,3.05
273,
273,3.05
273,
273,2.44
273,
273,2.44
273,
273,2.44
273,
273,2.44
273,
273,2.44
273,
273,2.44
273,
273,2.44
273,
273,3.05
273,
274,
274,
274,
274,
274,
274,
274,
274,
274,
274,
274,
274,
274,
274,
274,
274,
274,
274,
274,
275,
275,
275,
275,
275,
275,
275,
275,
275,
275,
275,
275,
275,
275,
275,
275,
275,
275,
275,
275,
276,
276,
276,
276,
276,
276,
276,
276,
276,
276,
276,
276,
276,
276,
276,
276,
276,
276,
276,
276,
276,
276,
276,
276,
276,
277,
277,
277,
277,
277,
277,
277,
277,
277,
277,
277,
277,
277,
277,
277,
277,
277,
277,
277,
277,
277,
277,
277,
277,
277,
277,
277,
277,
277,
277,
277,
277,
277,
277,
277,
277,
277,
277,
277,
277,
277,
277,
277,
277,
277,
277,
277,
277,
278,
278,
278,
278,
278,
278,
278,
278,
278,
278,
278,
278,
278,
278,
278,
278,
278,
278,
278,
278,
278,
278,
278,
278,
279,
279,
279,
279,3.05
279,
279,2.44
279,
279,3.05
279,
279,
279,3.05
279,3.05
279,
279,3.05
279,
279,3.05
279,
279,3.05
279,
279,2.44
279,
280,3.35
280,2.13
280,1.22
280,
280,3.35
280,2.13
280,1.22
280,
280,
280,2.13
280,2.13
280,2.13
280,2.13
280,2.13
280,2.13
280,
280,
280,2.13
280,2.13
280,2.13
280,2.13
280,2.13
280,2.13
280,
280,
280,2.13
280,2.13
280,2.13
280,
280,
280,2.13
280,2.13
280,2.13
280,2.13
280,2.13
280,2.13
280,2.13
280,2.13
280,
280,
281,6.1
281,
281,6.1
281,
281,6.1
281,
281,6.1
281,
281,6.1
281,
282,6.1
282,6.1
282,6.1
282,
282,
282,6.1
282,6.1
282,6.1
282,
282,
282,6.1
282,6.1
282,6.1
282,6.1
282,6.1
282,6.1
282,6.1
282,6.1
282,6.1
282,
282,
282,6.1
282,6.1
282,6.1
282,6.1
282,6.1
282,6.1
282,6.1
282,6.1
282,6.1
282,
282,
282,6.1
282,6.1
282,6.1
282,6.1
282,6.1
282,
282,
283,
283,
283,
283,
283,
283,
283,
283,
283,
283,
283,
283,
283,
283,
283,
283,
283,
283,
284,3.05
284,
284,3.05
284,
284,3.05
284,
284,3.05
284,
284,3.05
284,
284,3.05
284,
284,3.05
284,
284,3.05
284,
284,3.05
284,
284,3.05
284,
284,3.05
284,
285,3.35
285,2.13
285,1.22
285,
285,
285,3.35
285,2.13
285,1.22
285,3.35
285,2.13
285,1.22
285,
285,
285,3.35
285,2.13
285,1.22
285,3.35
285,2.13
285,2.13
285,1.22
285,
285,
286,
286,
286,
286,3.05
286,
286,2.44
286,
286,2.44
286,
286,2.44
286,
286,2.44
286,
286,2.44
286,
286,2.44
286,
286,2.44
286,
287,6.1
287,
287,6.1
287,
287,6.1
287,
287,6.1
287,
287,6.1
287,
287,6.1
287,
287,6.1
287,
287,6.1
287,
288,0.91
288,0.91
288,0.91
288,0.91
288,0.91
288,
288,
288,
288,
288,
288,0.91
288,
288,0.91
288,
288,0.91
288,
288,0.91
288,
288,0.91
288,
288,0.91
288,
288,0.91
288,
288,0.91
288,
288,0.91
288,
288,0.91
288,
288,0.91
288,0.91
288,0.91
288,
288,
288,
288,0.91
288,
288,0.91
288,
288,
289,
289,
289,
289,
289,
289,
289,
289,
289,
289,
289,
289,
289,
289,
289,
289,
289,
289,
289,
289,
289,
289,
289,
289,
289,
289,
289,
289,
289,
289,
290,
290,
290,
290,
290,
290,
290,
290,
290,
290,
290,
290,
290,
290,
290,
290,
290,
290,
290,
290,
290,
290,
290,
290,
291,6.1
291,
291,6.1
291,
291,6.1
291,
291,6.1
291,
291,6.1
291,
291,6.1
291,
292,
292,
292,
292,
292,
292,
292,
292,
292,
292,
292,
292,
292,
292,
292,
292,
292,
292,
293,6.1
293,
293,6.1
293,6.1
293,
293,6.1
293,
293,6.1
293,
293,6.1
293,
294,
294,
294,
294,
294,
294,
294,
294,
294,
294,
294,
294,
294,
294,
294,
294,
294,
294,
294,
294,
295,
295,
295,
295,
295,
295,
295,
295,
295,
295,
295,
295,
295,
295,
295,
295,
295,1.22
295,
295,1.22
295,2.44
295,
296,0.91
296,0.91
296,0.91
296,0.91
296,0.91
296,
296,
296,
296,
296,
296,0.91
296,
296,0.91
296,
296,0.91
296,
296,0.91
296,
296,0.91
296,
296,0.91
296,0.91
296,0.91
296,0.91
296,0.91
296,
296,
296,
296,
296,
296,0.91
296,0.91
296,0.91
296,0.91
296,
296,
296,
296,
296,
297,6.1
297,
297,6.1
297,
297,6.1
297,
297,6.1
297,
297,6.1
297,
297,6.1
297,
297,6.1
297,
298,5.18
298,
298,5.18
298,
298,5.18
298,
298,
298,3.05
298,
298,3.05
298,
298,
298,3.05
298,
298,3.66
298,1.22
298,
298,
299,
299,
299,
299,
299,
299,
299,
299,
299,
299,
299,
299,
299,
299,
299,
299,
299,
299,
299,
299,
299,
299,
300,6.4
300,
300,6.4
300,
300,6.4
300,
300,6.4
300,
300,6.4
300,
300,6.4
300,
300,6.4
300,
301,0.91
301,0.91
301,0.91
301,0.91
301,0.91
301,
301,0.91
301,0.91
301,0.91
301,0.91
301,0.91
301,0.91
301,
301,0.91
301,0.91
301,0.91
301,0.91
301,0.91
301,
301,0.91
301,0.91
301,0.91
301,0.91
301,0.91
301,
301,0.91
301,0.91
301,0.91
301,0.91
301,0.91
301,
301,0.91
301,0.91
301,0.91
301,0.91
301,0.91
301,
301,0.91
301,0.91
301,0.91
301,0.91
301,0.91
301,
302,
302,
302,
302,
302,
302,
302,
302,
302,
302,
302,
302,
302,
302,
302,
302,
302,
302,
302,
302,
303,6.1
303,6.1
303,6.1
303,
303,
303,6.1
303,6.1
303,6.1
303,6.1
303,6.1
303,6.1
303,6.1
303,6.1
303,6.1
303,
303,
303,6.1
303,6.1
303,6.1
303,6.1
303,6.1
303,6.1
303,
303,
303,6.1
303,6.1
303,6.1
303,6.1
303,6.1
303,6.1
303,
303,
304,
304,
304,
304,
304,
304,
304,
304,
304,
304,
304,
304,
304,
304,
304,
304,
304,
304,
304,
304,
304,
304,
305,
305,
305,
305,
305,
305,
305,
305,
305,
305,
305,
306,
306,
306,
306,3.05
306,
306,2.44
306,
306,2.44
306,
306,3.05
306,
306,3.05
306,
306,2.44
306,
306,3.05
306,
307,
307,
307,
307,
307,
307,
307,
307,
307,
307,
307,
307,
307,
307,
307,
307,
307,
307,
307,
307,
308,3.05
308,
308,3.05
308,
308,3.05
308,
308,3.05
308,
308,3.05
308,
308,3.05
308,
308,3.05
308,
309,
309,
309,
309,
309,
309,
309,
309,
309,
309,
309,
309,
309,
309,
309,
309,
309,
309,
309,
309,
309,
309,
309,
309,
310,
310,
310,
310,
310,
310,
310,
310,
310,
310,
310,
310,
310,
310,
310,
310,
310,
310,
310,
310,
311,
311,
311,
311,
311,
311,
311,
311,
311,
311,
311,
311,
311,
311,
311,
311,
311,
311,
311,
311,
312,
312,
312,
312,
312,
312,
312,
312,
312,
312,
312,
312,
312,
313,
313,
313,
313,
313,
313,
313,
313,
313,
313,
313,
313,
313,
313,
314,
314,0.91
314,
314,1.22
314,
314,1.22
314,1.22
314,1.22
314,1.22
314,1.22
314,
314,
314,5.18
314,5.18
314,
314,
314,5.18
314,5.18
314,
314,
315,
315,
315,
315,
315,
315,
315,
315,
315,
315,
315,
315,
315,
315,
315,
315,
315,
316,
316,
316,
316,3.05
316,
316,2.44
316,
316,2.44
316,
316,2.44
316,
316,2.44
316,
316,2.44
316,
316,2.44
316,
317,
317,
317,
317,
317,
317,
317,
317,
317,
317,
317,
317,
317,
317,
317,
318,3.35
318,2.13
318,1.22
318,
318,2.13
318,2.13
318,2.13
318,
318,
318,2.13
318,2.13
318,2.13
318,
318,
318,8.84
318,
318,
318,5.18
318,
318,
318,3.35
318,2.13
318,
318,
318,3.35
318,2.13
318,
318,
318,3.35
318,2.13
318,
318,
318,3.35
318,2.13
318,1.22
318,
318,
319,
319,
319,3.05
319,
319,2.44
319,
319,2.44
319,
319,2.44
319,
319,2.44
319,
319,
319,2.44
319,2.44
319,
319,2.44
319,
319,3.05
319,
320,
320,
320,
320,
320,
320,
320,
320,
320,
320,
320,
320,
320,
320,
320,
320,
320,
320,
320,
321,
321,
321,
321,
321,
321,
321,
321,
321,
321,
321,
321,
321,
321,
321,
321,
321,
321,
321,
321,
322,
322,
322,
322,
322,
322,
322,
322,
322,
322,
322,
322,
322,
322,
322,
322,
323,
323,
323,
323,
323,
323,
323,
323,
323,
323,
323,
323,
323,
323,
323,
324,3.35
324,2.13
324,1.22
324,
324,
324,3.35
324,2.13
324,1.22
324,3.35
324,2.13
324,1.22
324,
324,
324,3.35
324,2.13
324,1.22
324,3.35
324,2.13
324,1.22
324,
324,
324,3.35
324,2.13
324,1.22
324,
324,
325,
325,
325,
325,
325,
325,
325,
325,
325,
325,
325,
325,
325,
325,
325,
325,
325,
325,
325,
325,
325,
325,
325,
325,
325,
325,
325,
325,
325,
325,
326,
326,
326,
326,
326,
326,
326,
326,
326,
326,
326,
326,
326,
326,
326,
326,
326,
326,
326,
326,
326,
326,
326,
326,
326,
326,
326,
326,
326,
326,
326,
326,
326,
326,
326,
326,
326,
326,
326,
326,
326,
326,
326,
326,
326,
326,
327,
327,
327,
327,
327,
327,
327,
327,
327,
327,
327,
327,
327,
327,
327,
327,
327,
327,
327,
327,
328,
328,
328,
328,
328,
328,
328,
328,
328,
328,
328,
328,
328,
328,
328,
328,
328,
328,
328,
328,
329,
329,
329,
329,
329,
329,
329,
329,
329,
329,
329,
329,
329,
329,
329,
329,
329,
329,
329,
329,
329,
330,
330,
330,
330,
330,
330,
330,
330,
330,
330,
330,
330,
330,
330,
330,
330,
330,
330,
330,
330,
330,
330,
330,
330,
330,
330,
330,
330,
330,
331,
331,
331,
331,
331,
331,
331,
331,
331,
331,
331,
331,
331,
331,
331,
331,
331,
331,
331,
331,
331,
331,
331,
331,
331,
331,
331,
331,
331,
331,
332,6.1
332,
332,6.1
332,
332,6.1
332,6.1
332,6.1
332,
332,6.1
332,
332,6.1
332,
332,6.1
332,
333,
333,
333,
333,
333,
333,
333,
333,
333,
333,
333,
333,
333,
333,
333,
333,
333,
333,
333,
334,
334,
334,
334,
334,
334,
334,
334,
334,
334,
334,
334,
334,
334,
334,
334,
334,
334,
334,
335,
335,
335,
335,
335,
335,
335,
335,
335,
335,
335,
335,
335,
335,
335,
335,
335,
335,
335,
335,
336,
336,
336,
336,
336,
336,
336,
336,
336,
336,
336,
336,
336,
336,
336,
336,
336,
336,
336,
