N
D
V
H
X
I
S
E
F
G
O
W
U
N
D
V
H
X
I
S
E
F
G
O
W
U
L
S
E
F
G
O
W
U
N
D
V
H
X
S
E
F
G
O
W
U
N
D
V
H
X
I
S
N
D
V
H
X
I
S
E
F
G
O
W
U
N
D
V
H
X
I
S
E
F
G
O
W
U
L
S
E
F
G
O
W
U
N
D
V
H
X
S
E
F
G
O
W
U
N
D
V
H
X
I
S
E
F
G
O
W
U
L
M
K
T
Y
J
B
A
Q
C
R
P
Z
L
M
K
T
Y
J
B
A
I
S
E
F
G
O
W
U
L
M
K
T
Y
J
B
A
Q
C
R
P
Z
L
M
K
T
Y
J
B
A
M
K
T
Y
J
B
A
Q
C
R
P
Z
L
M
K
T
Y
J
B
A
Q
C
R
P
Z
E
F
G
O
W
U
L
M
K
T
Y
J
B
A
Q
C
R
P
Z
L
M
K
T
Y
J
B
A
I
S
E
F
G
O
W
U
L
M
K
T
Y
J
B
A
Q
C
R
P
Z
L
M
K
T
Y
J
B
A
M
K
T
Y
J
B
A
Q
C
R
P
Z
L
M
K
T
Y
J
B
A
Q
C
R
P
Z
